AIM to succeed
…
## # A tibble: 8 x 2
## # Groups:   study [1]
##   study `format(concentration, scientific = FALSE)`
##   <chr> <chr>                                      
## 1 CCLE  0.0025                                     
## 2 CCLE  0.0080                                     
## 3 CCLE  0.0250                                     
## 4 CCLE  0.0800                                     
## 5 CCLE  0.2500                                     
## 6 CCLE  0.8000                                     
## 7 CCLE  2.5300                                     
## 8 CCLE  8.0000

## # A tibble: 32 x 2
## # Groups:   study [1]
##    study `format(concentration, scientific = FALSE)`
##    <chr> <chr>                                      
##  1 GDSC  " 0.0039062500"                            
##  2 GDSC  " 0.0078125000"                            
##  3 GDSC  " 0.0156250000"                            
##  4 GDSC  " 0.0312500000"                            
##  5 GDSC  " 0.0625000000"                            
##  6 GDSC  " 0.1250000000"                            
##  7 GDSC  " 0.2500000000"                            
##  8 GDSC  " 0.5000000000"                            
##  9 GDSC  " 1.0000000000"                            
## 10 GDSC  " 2.0000000000"                            
## #  with 22 more rows
…
